#include<stdio.h>
int main()
{
int a, b;
printf("Enter the Numbers to Swap: \n");
scanf("%d %d",&a,&b);

printf("Before swap \n a=%d b=%d",a,b);

a=a+b;
b=a-b;
a=a-b;

printf("\nAfter swap \n a=%d b=%d",a,b);
return 0;
}